{
  "name": "Desktop Widgets (Desktop Clock)",
  "description": "Add widgets to the desktop!",
  "uuid": "azclock@azclock.gitlab.com",
  "gettext-domain": "azclock",
  "settings-schema": "org.gnome.shell.extensions.azclock",
  "version": 14,
  "shell-version": ["45", "46", "47", "48"],
  "url": "https://gitlab.com/AndrewZaech/azclock",
  "donations": {
    "paypal": "azaech",
    "buymeacoffee": "azaech"
  }
}
